{
  "_fv": 6,
  "_type": "recipe",
  "definition": {
    "recipeType": "Smelting",
    "xpReward": 2.0,
    "recipeRetstackSize": 1,
    "group": "",
    "recipeShapeless": false,
    "smeltingInputStack": {
      "value": "CUSTOM:HelpliumOre"
    },
    "smeltingReturnStack": {
      "value": "CUSTOM:Helplium"
    },
    "name": "helplsmelt",
    "namespace": "mod"
  }
}