{
  "_fv": 6,
  "_type": "tool",
  "definition": {
    "renderType": 0,
    "texture": "shitstainiumsword",
    "customModelName": "Normal",
    "name": "Shitstainium sword",
    "creativeTab": {
      "value": "COMBAT"
    },
    "toolType": "Sword",
    "harvestLevel": 0,
    "efficiency": 1.0,
    "attackSpeed": 1.6,
    "enchantability": 100,
    "damageVsEntity": 2.0,
    "usageCount": 10000,
    "blocksAffected": [],
    "hasGlow": false,
    "repairItems": [
      {
        "value": "CUSTOM:Shitstainium"
      }
    ],
    "onItemInInventoryTick": {
      "name": "ShitstainiumswordItemInHandTick"
    }
  }
}