{
  "_fv": 6,
  "_type": "procedure",
  "definition": {
    "procedurexml": "<xml xmlns=\"https://developers.google.com/blockly/xml\"><block type=\"event_trigger\" deletable=\"false\" x=\"40\" y=\"40\"><field name=\"trigger\">No additional trigger</field><next><block type=\"entity_add_potion\"><field name=\"potion\">BLINDNESS</field><value name=\"level\"><block type=\"math_number\"><field name=\"NUM\">10</field></block></value><value name=\"duration\"><block type=\"math_number\"><field name=\"NUM\">20</field></block></value></block></next></block></xml>"
  }
}